product_id,rating
0,3
0,3
0,3
0,3
0,5
0,5
0,1
0,1
0,1
0,2
0,2
1,3
1,4
1,5
1,1
2,4
2,4
2,4
2,2
2,2
2,2
2,2
3,1
3,1
3,1
3,1
4,2
4,2
4,2
4,2
5,1
5,2
5,3
5,4
5,5
5,2
5,3
6,1
6,2
6,3
6,5
6,4
7,2
8,2
9,2
9,2
9,2
10,2
