<svg version="1.1" xmlns="http://www.w3.org/2000/svg" x="0" y="0" viewBox="0 0 275 185" xml:space="preserve">
    <path fill="red" d="M20.874 185v-54.488H2.548V116.4h52.038v14.112H36.162V185H20.874zm42.043 0v-68.6h47.138v14.112h-31.85v13.23h27.636v13.132H78.205v14.014h32.438V185H62.917zm51.238
                                0l27.244-68.796h12.25L180.991 185h-16.464l-4.606-12.544h-25.284L129.933
                                185h-15.778zm25.48-25.676h15.484l-7.644-20.678-7.84 20.678zM187.671 185v-69.09h9.8l23.129 33.222
                                23.127-33.222h9.899V185h-15.19v-36.652l-15.484 21.462h-4.606l-15.485-21.364V185h-15.19z" />

    <path fill="currentColor" d="M2.172 0v103.6h82.14L60.188 65.12c6.709-2.565 11.889-6.512 15.54-11.84s5.476-11.593
                                5.476-18.796c0-6.709-1.529-12.629-4.588-17.76-3.059-5.229-7.4-9.324-13.024-12.284S51.259 0 43.464
                                0H2.172zm95.142 103.6V0h71.188v21.312h-18.1v19.98h11.736v19.832h-11.736v21.164h18.988V103.6H97.314zm89.072
                                0V0h36.26c10.557 0 19.733 2.22 27.528 6.66 7.893 4.44 14.01 10.557 18.352 18.352 4.44 7.696 6.66 16.625 6.66 26.788 0
                                10.064-2.22 18.993-6.66 26.788-4.342 7.795-10.459 13.912-18.352 18.352-7.795 4.44-16.971 6.66-27.528 6.66h-36.26zM12
                                7.602c-1.657 0-3 1.343-3 3v4c0 1.657 1.343 3 3 3h8c1.657 0 3-1.343 3-3v-4c0-1.657-1.343-3-3-3h-8zm-3 43c0-1.657 1.343-3
                                3-3h8c1.657 0 3 1.343 3 3v4c0 1.657-1.343 3-3 3h-8c-1.657 0-3-1.343-3-3v-4zm3-23c-1.657 0-3 1.343-3 3v4c0 1.657 1.343 3 3
                                3h8c1.657 0 3-1.343 3-3v-4c0-1.657-1.343-3-3-3h-8zm-3 43c0-1.657 1.343-3 3-3h8c1.657 0 3 1.343 3 3v4c0 1.657-1.343 3-3
                                3h-8c-1.657 0-3-1.343-3-3v-4zm3 16c-1.657 0-3 1.343-3 3v4c0 1.657 1.343 3 3 3h8c1.657 0
                                3-1.343 3-3v-4c0-1.657-1.343-3-3-3h-8zm93-76c0-1.657 1.343-3 3-3h8c1.657 0 3 1.343 3 3v4c0 1.657-1.343 3-3
                                3h-8c-1.657 0-3-1.343-3-3v-4zm3 37c-1.657 0-3 1.343-3 3v4c0 1.657 1.343 3 3 3h8c1.657 0 3-1.343
                                3-3v-4c0-1.657-1.343-3-3-3h-8zm-3-17c0-1.657 1.343-3 3-3h8c1.657 0 3 1.343 3 3v4c0 1.657-1.343 3-3
                                3h-8c-1.657 0-3-1.343-3-3v-4zm3 37c-1.657 0-3 1.343-3 3v4c0 1.657 1.343 3 3 3h8c1.657 0 3-1.343
                                3-3v-4c0-1.657-1.343-3-3-3h-8zm-3 22c0-1.657 1.343-3 3-3h8c1.657 0 3 1.343 3 3v4c0 1.657-1.343 3-3 3h-8c-1.657
                                0-3-1.343-3-3v-4zm94-82c-1.657 0-3 1.343-3 3v4c0 1.657 1.343 3 3 3h8c1.657 0 3-1.343 3-3v-4c0-1.657-1.343-3-3-3h-8zm-3
                                43c0-1.657 1.343-3 3-3h8c1.657 0 3 1.343 3 3v4c0 1.657-1.343 3-3 3h-8c-1.657 0-3-1.343-3-3v-4zm3-23c-1.657 0-3 1.343-3
                                3v4c0 1.657 1.343 3 3 3h8c1.657 0 3-1.343 3-3v-4c0-1.657-1.343-3-3-3h-8zm-3 43c0-1.657 1.343-3 3-3h8c1.657 0 3 1.343 3
                                3v4c0 1.657-1.343 3-3 3h-8c-1.657 0-3-1.343-3-3v-4zm3 16c-1.657 0-3 1.343-3 3v4c0 1.657 1.343 3 3 3h8c1.657 0 3-1.343
                                3-3v-4c0-1.657-1.343-3-3-3h-8z" fill-rule="evenodd" clip-rule="evenodd" />
</svg>